7 Spatial-Temporal Mobility Analysis | GEOG0125: Advanced Topics in Social and Geographic Data Science
…
# read gps data
gps <- read_sf('raw/w07/gps_cape_town.shp')

# read road data
road <- read_sf('raw/w07/roads_cape_town.shp')

# inspect
gps

## Simple feature collection with 54218 features and 14 fields
## geometry type:  POINT
## dimension:      XY
## bbox:           xmin: 18.34291 ymin: -34.20729 xmax: 19.06105 ymax: -33.64011
## CRS:            4148
## # A tibble: 54,218 x 15
##     stop type  duration point_id_n point_x point_y st_dev xshift  yshift
##    <dbl> <chr>    <dbl>      <dbl>   <dbl>   <dbl>  <dbl>  <dbl>   <dbl>
##  1     1 MEDI…       30          1 -13316. -3.76e6     68  56.9   -86.7 
##  2     1 MEDI…       30          2 -13316. -3.76e6     68  65.2   -69.6 
##  3     1 MEDI…       30          5 -13316. -3.76e6     68 -13.4   106.  
##  4     1 MEDI…       30          9 -13316. -3.76e6     68 129.    -22.5 
##  5     1 MEDI…       30         10 -13316. -3.76e6     68 131.   -109.  
##  6     1 MEDI…       30         12 -13316. -3.76e6     68   8.15  -14.2 
##  7     1 MEDI…       30         14 -13316. -3.76e6     68  -1.16  -98.2 
##  8     1 MEDI…       30         16 -13316. -3.76e6     68 -37.8     5.67
##  9     1 MEDI…       30         18 -13316. -3.76e6     68  46.3    68.6 
## 10     1 MEDI…       30         22 -13316. -3.76e6     68 -67.2    16.0 
## # … with 54,208 more rows, and 6 more variables: timestamp <chr>,
## #   mode <chr>, track_id <chr>, move <chr>, activity <chr>,
## #   geometry <POINT [°]>

# inspect
road

## Simple feature collection with 125024 features and 1 field
## geometry type:  LINESTRING
## dimension:      XY
## bbox:           xmin: 18.34051 ymin: -34.3001 xmax: 19.12007 ymax: -33.62755
## CRS:            4148
## # A tibble: 125,024 x 2
##       id                                                           geometry
##    <dbl>                                                   <LINESTRING [°]>
##  1     1 (18.93353 -34.16301, 18.93345 -34.1631, 18.93335 -34.16318, 18.93…
##  2     2 (18.45615 -34.27366, 18.4545 -34.27321, 18.45298 -34.2728, 18.452…
##  3     3 (18.45615 -34.27366, 18.45674 -34.27201, 18.45683 -34.27181, 18.4…
##  4     4 (18.85612 -34.25045, 18.85621 -34.2506, 18.85633 -34.25087, 18.85…
##  5     5 (19.12007 -34.25944, 19.11977 -34.25952, 19.11936 -34.25961, 19.1…
##  6     6 (18.50105 -33.98948, 18.50102 -33.98942, 18.50105 -33.98935, 18.5…
##  7     7 (18.65381 -34.00991, 18.65355 -34.00979, 18.65251 -34.00931, 18.6…
##  8     8 (18.63738 -34.07209, 18.63846 -34.07193, 18.63924 -34.07183, 18.6…
##  9     9 (18.44389 -34.03779, 18.44389 -34.03798, 18.44388 -34.03826, 18.4…
## 10    10 (18.64958 -34.04498, 18.64729 -34.04547, 18.64228 -34.04652, 18.6…
## # … with 125,014 more rows
…
