2 Statistical Inference and Causality | GEOG0125: Advanced Topics in Social and Geographic Data Science
…
# load libraries
library(tidyverse)
library(plm)
library(car)
library(gplots)
library(tseries)
library(lmtest)

# read data
country_data <- read_csv('raw/w02/paneldata.csv')

# inspect
head(country_data)

## # A tibble: 6 x 6
##   country  year           y    x1     x2      x3
##   <chr>   <dbl>       <dbl> <dbl>  <dbl>   <dbl>
## 1 A        1990  1342787840 0.278 -1.11   0.283 
## 2 A        1991 -1899660544 0.321 -0.949  0.493 
## 3 A        1992   -11234363 0.363 -0.789  0.703 
## 4 A        1993  2645775360 0.246 -0.886 -0.0944
## 5 A        1994  3008334848 0.425 -0.730  0.946 
## 6 A        1995  3229574144 0.477 -0.723  1.03

Upon inspecting the dataframe you can see that the data contains 8 different fictional countries. For each country we have several years of data: three independent variables names \(X_{1}\), \(X_{2}\), and \(X_{3}\) and a dependent variable \(y\). As this is a panel dataset we have to declare it as such using the plm.data() function from the plm package. The plm package is a library dedicated to panel data analysis.

# create a panel data object
country_panel <- pdata.frame(country_data, index=c('country','year'))

# inspect
country_panel

##        country year           y        x1         x2          x3
## A-1990       A 1990  1342787840 0.2779037 -1.1079559  0.28255358
## A-1991       A 1991 -1899660544 0.3206847 -0.9487200  0.49253848
## A-1992       A 1992   -11234363 0.3634657 -0.7894840  0.70252335
## A-1993       A 1993  2645775360 0.2461440 -0.8855330 -0.09439092
## A-1994       A 1994  3008334848 0.4246230 -0.7297683  0.94613063
##  [ reached 'max' / getOption("max.print") -- omitted 65 rows ]
…
